<?xml version="1.0" encoding="utf-8"?>
<svg class="numero" version="1.1" id="Capa_1" xmlns="http://www.w3.org/2000/svg" xmlns:xlink="http://www.w3.org/1999/xlink" x="0px" y="0px" viewBox="0 0 112.89 149.68" style="enable-background:new 0 0 112.89 149.68;" xml:space="preserve">
<g>
	<path d="M68.14,6.97h16.41v79.2h25.59v12.21H84.54v44.82H68.14V98.37H3.98V81.19L68.14,6.97z M68.14,86.17V22.08L12.86,86.17H68.14
		z"/>
</g>
</svg>
